<?xml version="1.0" standalone="no"?>
<!DOCTYPE svg PUBLIC "-//W3C//DTD SVG 1.1//EN" "http://www.w3.org/Graphics/SVG/1.1/DTD/svg11.dtd" >
<svg xmlns="http://www.w3.org/2000/svg">
<metadata>Generated by IcoMoon</metadata>
<defs>
<font id="icomoon" horiz-adv-x="1024">
<font-face units-per-em="1024" ascent="960" descent="-64" />
<missing-glyph horiz-adv-x="1024" />
<glyph unicode="&#x20;" horiz-adv-x="512" d="" />
<glyph unicode="&#xe900;" glyph-name="logo" horiz-adv-x="1019" d="M52.514-2.897c-0.442 1.815-0.62 26.077-0.395 53.914l0.409 50.613 59.415 0.794v686.518h-29.313c-29.182 0-29.317 0.015-30.117 3.301-0.442 1.815-0.62 26.077-0.395 53.914l0.409 50.613 234.985 0.751 3.906-3.356c2.148-1.846 3.906-4.16 3.906-5.143s1.33-1.787 2.955-1.787c3.409 0 11.609-8.383 11.673-11.932 0.023-1.318 1.363-2.742 2.977-3.164 2.108-0.551 2.934-2.001 2.934-5.149 0-2.541 0.924-4.736 2.201-5.226 1.936-0.743 2.215-19.512 2.316-156.031 0.063-85.353 0.449-154.361 0.856-153.353s2.588 1.834 4.848 1.834c2.874 0 4.338 0.881 4.875 2.934 0.559 2.136 2.001 2.934 5.306 2.934 3.056 0 4.538 0.719 4.538 2.201 0 1.537 1.549 2.201 5.135 2.201s5.135 0.664 5.135 2.201c0 1.21 0.825 2.251 1.834 2.313 4.88 0.299 7.595 1.371 8.765 3.463 0.864 1.543 3.417 2.293 7.812 2.293 4.825 0 6.529 0.574 6.529 2.201 0 1.663 1.793 2.201 7.335 2.201 5.292 0 7.335 0.569 7.335 2.044 0 2.542 3.187 3.825 9.499 3.825 2.965 0 5.187 0.858 5.702 2.201 0.624 1.627 3.204 2.201 9.898 2.201 6.090 0 9.587 0.683 10.682 2.088 1.117 1.432 5.64 2.264 14.401 2.649 9.354 0.41 13.508 1.226 15.52 3.046 2.419 2.189 6.895 2.486 37.52 2.486 29.556 0 34.9 0.33 35.617 2.201 0.672 1.751 3.81 2.201 15.358 2.201 11.379 0 14.514 0.438 14.514 2.029 0 2.159 4.242 3.756 10.269 3.865 2.017 0.036 4.949 1.036 6.515 2.221s5.053 2.154 7.748 2.154c3.003 0 5.227 0.852 5.745 2.201 0.475 1.238 2.658 2.201 4.99 2.201 2.857 0 4.435 0.912 5.077 2.934 0.652 2.055 2.22 2.934 5.234 2.934 2.846 0 4.302 0.745 4.302 2.201 0 1.21 1.017 2.201 2.26 2.201 2.517 0 11.028 5.587 12.85 8.436 0.645 1.009 2.060 1.834 3.144 1.834s2.351 0.99 2.815 2.201c0.464 1.21 2.439 2.201 4.387 2.201 2.309 0 3.81 1.022 4.31 2.934 0.422 1.614 1.819 2.934 3.105 2.934s2.338 0.99 2.338 2.201c0 1.21 0.99 2.201 2.201 2.201s2.201 0.99 2.201 2.201c0 1.21 0.913 2.201 2.029 2.201s2.375 1.32 2.797 2.934c0.422 1.614 1.819 2.934 3.105 2.934s2.338 0.99 2.338 2.201c0 1.21 0.99 2.201 2.201 2.201 1.223 0 2.201 1.304 2.201 2.934 0 1.614 1.32 4.254 2.934 5.868s2.934 3.594 2.934 4.401c0 0.807 0.99 1.467 2.201 1.467s2.201 1.24 2.201 2.754c0 1.515 0.99 3.576 2.201 4.581s2.201 2.73 2.201 3.835c0 1.105 1.32 2.833 2.934 3.841 1.783 1.113 2.934 3.421 2.934 5.881 0 2.62 0.776 4.048 2.201 4.048 1.459 0 2.201 1.459 2.201 4.328 0 2.381 0.97 4.871 2.156 5.535s2.552 3.832 3.037 7.041c0.485 3.209 1.825 6.568 2.979 7.464 1.284 0.997 2.098 4.27 2.098 8.436 0 4.857 0.588 6.807 2.055 6.807 1.573 0 2.175 3.123 2.567 13.323 0.408 10.598 1.038 13.706 3.080 15.199 2.346 1.715 2.567 5.667 2.567 45.936 0 37.811 0.312 44.179 2.201 44.904 1.21 0.464 2.201 2.192 2.201 3.839s1.32 4.125 2.934 5.507c1.614 1.382 2.934 3.356 2.934 4.387s0.99 1.875 2.201 1.875c1.21 0 2.201 0.99 2.201 2.201 0 1.223 1.304 2.201 2.934 2.201 1.614 0 2.934 0.938 2.934 2.084s1.981 2.519 4.401 3.051c2.421 0.532 4.401 1.904 4.401 3.051 0 1.783 17.135 2.084 118.831 2.084h118.831v-108.562h-58.342l-0.575-19.694c-0.468-16.029-1.046-20.214-3.104-22.488-2.001-2.211-2.529-5.563-2.529-16.069 0-10.010-0.541-13.724-2.201-15.101-1.495-1.241-2.201-4.566-2.201-10.376 0-5.63-0.678-8.95-1.984-9.723-1.128-0.667-2.363-4.958-2.863-9.943-0.539-5.385-1.755-9.411-3.15-10.431-1.423-1.040-2.272-3.949-2.272-7.781 0-4.086-0.731-6.4-2.201-6.964-1.329-0.51-2.201-2.726-2.201-5.595 0-2.887-1.151-5.792-2.934-7.406-1.82-1.647-2.934-4.518-2.934-7.563 0-3.384-0.683-4.907-2.201-4.907-1.472 0-2.201-1.472-2.201-4.447 0-2.6-0.914-4.798-2.201-5.292-1.21-0.464-2.201-2.040-2.201-3.502 0-4.225-1.61-7.298-3.825-7.298-1.276 0-2.044-1.594-2.044-4.244 0-2.419-0.946-4.607-2.201-5.089-1.21-0.464-2.201-2.577-2.201-4.695 0-2.617-0.94-4.097-2.934-4.618-2.088-0.546-2.934-2.001-2.934-5.043 0-2.448-0.941-4.637-2.201-5.121-1.21-0.464-2.201-1.764-2.201-2.888s-0.99-2.044-2.201-2.044c-1.21 0-2.201-1.266-2.201-2.814 0-4.373-1.581-7.455-3.825-7.455-1.124 0-2.044-1.32-2.044-2.934s-0.908-2.934-2.017-2.934c-1.109 0-2.413-1.981-2.897-4.401-0.516-2.581-1.805-4.401-3.117-4.401-1.23 0-2.237-1.011-2.237-2.247s-0.99-2.627-2.201-3.091c-1.21-0.464-2.201-1.764-2.201-2.888s-0.99-2.044-2.201-2.044c-1.219 0-2.201-1.303-2.201-2.922 0-1.607-1.32-3.746-2.934-4.754s-2.934-2.994-2.934-4.414c0-1.42-0.99-2.581-2.201-2.581s-2.201-0.749-2.201-1.666c0-1.958-6.857-8.604-8.878-8.604-0.765 0-1.392-0.99-1.392-2.201s-0.913-2.201-2.029-2.201c-1.116 0-2.375-1.32-2.797-2.934s-1.819-2.934-3.105-2.934c-1.286 0-2.338-0.99-2.338-2.201s-0.99-2.201-2.201-2.201c-1.21 0-2.201-0.844-2.201-1.875s-1.375-3.052-3.056-4.491c-1.749-1.497-2.69-3.571-2.201-4.847 0.471-1.227 0.856-2.836 0.856-3.577s0.879-1.347 1.953-1.347c2.188 0 17.119-15.097 17.119-17.31 0-0.781 1.32-1.764 2.934-2.186s2.934-1.819 2.934-3.105c0-1.286 0.99-2.338 2.201-2.338s2.201-0.99 2.201-2.201c0-1.21 0.99-2.201 2.201-2.201s2.201-1.052 2.201-2.338c0-1.286 1.32-2.683 2.934-3.105s2.934-1.61 2.934-2.64c0-1.030 0.99-2.253 2.201-2.717s2.201-2.401 2.201-4.303c0-2.159 1.929-5.067 5.135-7.74 2.824-2.355 5.135-5.11 5.135-6.123s0.99-1.842 2.201-1.842c1.467 0 2.201-1.467 2.201-4.401 0-2.974 0.728-4.401 2.247-4.401 1.236 0 2.671-1.155 3.19-2.567s1.819-3.095 2.888-3.741c1.069-0.645 1.944-2.812 1.944-4.814s0.95-4.005 2.111-4.451c1.161-0.446 2.522-2.68 3.024-4.966s1.863-4.521 3.024-4.966c1.161-0.446 2.111-1.74 2.111-2.877s0.99-2.889 2.201-3.893c1.21-1.004 2.201-3.396 2.201-5.314s0.651-3.488 1.447-3.488c0.796 0 2.379-2.23 3.518-4.956s2.798-5.405 3.687-5.955c0.889-0.55 1.617-2.87 1.617-5.157 0-2.342 0.961-4.526 2.201-5.002 1.438-0.552 2.201-2.836 2.201-6.588 0-4.509 0.63-5.908 2.934-6.51 2.223-0.581 2.934-2.001 2.934-5.86 0-2.801 0.99-5.914 2.201-6.919s2.201-4.169 2.201-7.033c0-2.863 1.068-6.387 2.374-7.83s2.719-5.786 3.141-9.651c0.422-3.865 1.664-7.556 2.761-8.201 1.347-0.793 1.993-4.191 1.993-10.479 0-6.919 0.565-9.523 2.201-10.15 1.735-0.666 2.201-3.693 2.201-14.299 0-11.121 0.445-13.78 2.567-15.331 2.368-1.731 2.624-7.55 3.301-74.981 0.403-40.208 1.208-71.95 1.788-70.538 0.944 2.298 3.58 2.567 25.127 2.567 19.608 0 24.411-0.408 25.899-2.201 1.004-1.21 2.736-2.201 3.847-2.201 1.68 0 2.021-9.154 2.021-54.281v-54.281h-115.209c-101.055 0-115.313 0.27-116.054 2.201-0.521 1.358-2.751 2.201-5.822 2.201-3.343 0-4.978 0.69-4.978 2.102 0 1.156-1.371 2.537-3.046 3.068-4.185 1.328-13.092 10.204-13.092 13.046 0 1.278-0.99 2.323-2.201 2.323s-2.201 1.037-2.201 2.305c0 1.268-0.99 3.296-2.201 4.506-1.909 1.909-2.201 14.356-2.201 93.991 0 85.727-0.17 91.915-2.567 93.667-2.053 1.501-2.671 4.619-3.083 15.566-0.368 9.76-1.105 14.026-2.567 14.863-1.359 0.777-2.052 3.847-2.052 9.096 0 5.36-0.682 8.304-2.106 9.102-1.159 0.648-2.458 3.119-2.888 5.49s-1.793 4.877-3.028 5.569c-1.236 0.691-2.246 3.134-2.246 5.428 0 2.354-0.959 4.539-2.201 5.016-1.21 0.464-2.201 2.185-2.201 3.825s-1.32 4.3-2.934 5.914c-1.614 1.614-2.934 4.254-2.934 5.868 0 1.63-0.978 2.934-2.201 2.934-1.21 0-2.201 1.25-2.201 2.777s-0.99 3.157-2.201 3.622c-1.21 0.464-2.201 2.247-2.201 3.962 0 1.884-1.161 3.421-2.934 3.885-1.614 0.422-2.934 1.61-2.934 2.64s-0.99 2.253-2.201 2.717c-1.21 0.464-2.201 1.855-2.201 3.091s-0.692 2.247-1.537 2.247c-1.789 0-8.732 7.17-8.732 9.017 0 0.689-0.99 1.253-2.201 1.253s-2.201 0.99-2.201 2.201c0 1.21-0.732 2.201-1.627 2.201-2.254 0-8.586 6.199-8.617 8.436-0.014 1.009-1.346 1.834-2.959 1.834-1.63 0-2.934 0.978-2.934 2.201 0 1.377-1.391 2.201-3.714 2.201-2.043 0-4.094 0.99-4.558 2.201s-1.758 2.201-2.876 2.201c-1.117 0-2.856 1.32-3.864 2.934s-3.324 2.934-5.147 2.934c-1.968 0-3.315 0.894-3.315 2.201 0 1.482-1.482 2.201-4.538 2.201-3.144 0-4.752 0.815-5.232 2.653-0.51 1.95-2.32 2.742-6.831 2.987-3.376 0.184-6.87 1.301-7.766 2.482s-3.985 2.147-6.864 2.147c-2.879 0-6.225 0.99-7.435 2.201s-4.723 2.204-7.807 2.209c-6.983 0.010-16.609 2.596-16.609 4.462 0 0.838-11.428 1.398-28.535 1.398-24.189 0-28.727-0.345-29.801-2.263-0.874-1.562-4.534-2.537-11.806-3.147-6.089-0.511-11.236-1.723-12.19-2.872-0.928-1.119-4.458-1.988-8.072-1.988-4.73 0-6.422-0.58-6.422-2.201 0-1.537-1.549-2.201-5.135-2.201-3.411 0-5.135-0.686-5.135-2.044 0-2.214-3.073-3.825-7.298-3.825-1.461 0-3.037-0.99-3.502-2.201-0.483-1.26-2.673-2.201-5.121-2.201-2.862 0-4.501-0.861-4.957-2.605-0.377-1.444-2.209-2.72-4.107-2.863-1.884-0.142-3.998-1.28-4.697-2.53s-2.229-2.272-3.399-2.272c-1.17 0-2.128-0.99-2.128-2.201s-0.844-2.201-1.875-2.201c-1.031 0-2.937-1.155-4.234-2.567-3.705-4.031-8.977-7.702-11.060-7.702-1.046 0-1.902-0.946-1.902-2.102s-1.32-2.521-2.934-3.033c-1.614-0.512-2.934-1.877-2.934-3.033s-0.99-2.102-2.201-2.102c-1.21 0-2.201-0.687-2.201-1.526 0-1.935-6.006-10.563-8.436-12.117-1.009-0.645-1.834-2.131-1.834-3.301s-0.99-2.128-2.201-2.128c-1.21 0-2.201-0.844-2.201-1.875s-1.32-3.005-2.934-4.387c-1.614-1.382-2.934-3.86-2.934-5.507s-0.99-3.374-2.201-3.839c-1.21-0.464-2.201-2.445-2.201-4.401s-0.925-3.912-2.056-4.346c-1.131-0.434-2.481-3.054-3.001-5.822-0.562-2.993-1.809-5.033-3.078-5.033-1.461 0-2.134-1.62-2.134-5.135 0-3.586-0.664-5.135-2.201-5.135-1.626 0-2.201-1.703-2.201-6.529 0-3.973-0.786-6.988-2.007-7.702-1.219-0.712-2.387-5.178-2.976-11.373-0.537-5.646-1.933-11.265-3.128-12.585-1.854-2.049-2.159-15.894-2.159-98.041 0-83.674-0.276-95.761-2.201-96.5-1.22-0.468-2.201-2.647-2.201-4.891 0-2.225-1.32-5.725-2.934-7.776s-2.934-4.472-2.934-5.379c0-0.907-0.99-2.028-2.201-2.493s-2.201-1.764-2.201-2.888c0-1.124-0.66-2.044-1.467-2.044s-2.709-1.155-4.227-2.567c-6.206-5.773-9.815-7.702-14.41-7.702-3.321 0-4.836-0.689-4.836-2.201 0-1.937-13.608-2.201-113.668-2.201h-113.668l-0.804 3.301z" />
</font></defs></svg>